…
* `dplyr` includes a wrapper called `tbl_df` that adds an additional class attribute onto `data.frames` that provides some better data manipulation aesthetics (there's now a dedicated package [`tibble`](www.github.com/hadley/tibble) for this wrapper and it's class)
* Most noticeable differential between `tbl_df` and `data.frame`s is the console output: `tbl_df`s will only print what the current R console window can display
* Can change the default setting for number of displayed columns by changing the options parameter: `options(dplyr.width = Inf)` 


```r
library(dplyr)
library(stringr)
taxi_url <- "http://alizaidi.blob.core.windows.net/training/trainingData/manhattan_df.rds"
taxi_df  <- readRDS(gzcon(url(taxi_url)))
(taxi_df <- tbl_df(taxi_df))
```

```
## # A tibble: 5,000,000 × 21
##    VendorID passenger_count trip_distance pickup_longitude pickup_latitude
##       <int>           <int>         <dbl>            <dbl>           <dbl>
## 1         1               1          1.40        -74.00555        40.72562
## 2         2               2          4.58        -73.98419        40.73022
## 3         2               5          9.63        -73.97183        40.76273
## 4         1               1          1.70        -73.96131        40.77190
## 5         1               2          0.60        -73.99568        40.72430
## 6         1               1          4.10        -73.95731        40.76214
## 7         2               5          1.76        -73.99208        40.72919
## 8         2               1          2.68        -73.95257        40.78289
## 9         2               1          1.69        -73.94909        40.78134
## 10        2               1          1.16        -73.98251        40.76832
## # ... with 4,999,990 more rows, and 16 more variables: RatecodeID <int>,
## #   store_and_fwd_flag <chr>, dropoff_longitude <dbl>,
## #   dropoff_latitude <dbl>, payment_type <int>, fare_amount <dbl>,
## #   tip_amount <dbl>, tolls_amount <dbl>, tip_percent <dbl>,
## #   pickup_hour <fctr>, pickup_dow <fctr>, dropoff_hour <fctr>,
## #   dropoff_dow <fctr>, trip_duration <int>, pickup_nhood <fctr>,
## #   dropoff_nhood <fctr>
```
…
## Filter


```r
filter(taxi_df,
       dropoff_dow %in% c("Fri", "Sat", "Sun"),
       tip_amount > 1)
```

```
## # A tibble: 1,120,381 × 21
##    VendorID passenger_count trip_distance pickup_longitude pickup_latitude
##       <int>           <int>         <dbl>            <dbl>           <dbl>
## 1         2               5          1.76        -73.99208        40.72919
## 2         1               1          3.20        -73.98829        40.76429
## 3         2               3          1.86        -73.97189        40.75711
## 4         1               2         17.30        -73.78173        40.64448
## 5         1               1          1.30        -73.94249        40.79044
## 6         1               1          2.80        -73.96978        40.75972
## 7         2               1          4.65        -73.98398        40.73781
## 8         1               2          1.50        -73.96262        40.77548
## 9         2               2          0.83        -73.97236        40.78106
## 10        2               6         11.32        -73.98249        40.76269
## # ... with 1,120,371 more rows, and 16 more variables: RatecodeID <int>,
## #   store_and_fwd_flag <chr>, dropoff_longitude <dbl>,
## #   dropoff_latitude <dbl>, payment_type <int>, fare_amount <dbl>,
## #   tip_amount <dbl>, tolls_amount <dbl>, tip_percent <dbl>,
## #   pickup_hour <fctr>, pickup_dow <fctr>, dropoff_hour <fctr>,
## #   dropoff_dow <fctr>, trip_duration <int>, pickup_nhood <fctr>,
## #   dropoff_nhood <fctr>
```
…
```r
harlem_pickups <- filter(taxi_df, str_detect(pickup_nhood, "Harlem"))
harlem_pickups
```

```
## # A tibble: 71,979 × 21
##    VendorID passenger_count trip_distance pickup_longitude pickup_latitude
##       <int>           <int>         <dbl>            <dbl>           <dbl>
## 1         1               1          1.30        -73.94249        40.79044
## 2         1               1          4.70        -73.93792        40.81836
## 3         2               1          4.42        -73.93603        40.80380
## 4         2               1          5.89        -73.93388        40.80276
## 5         1               1          4.10        -73.94268        40.81198
## 6         2               3          3.20        -73.95286        40.78902
## 7         1               2          1.40        -73.93806        40.80351
## 8         1               2          1.10        -73.95318        40.79869
## 9         2               1          0.32        -73.95840        40.80272
## 10        2               1          1.81        -73.94090        40.80830
## # ... with 71,969 more rows, and 16 more variables: RatecodeID <int>,
## #   store_and_fwd_flag <chr>, dropoff_longitude <dbl>,
## #   dropoff_latitude <dbl>, payment_type <int>, fare_amount <dbl>,
## #   tip_amount <dbl>, tolls_amount <dbl>, tip_percent <dbl>,
## #   pickup_hour <fctr>, pickup_dow <fctr>, dropoff_hour <fctr>,
## #   dropoff_dow <fctr>, trip_duration <int>, pickup_nhood <fctr>,
## #   dropoff_nhood <fctr>
```
…
* You can use the `select()` verb to specify which columns of a dataset you want
* This is similar to the `keep` option in SAS's data step.
* Use a colon `:` to select all the columns between two variables (inclusive)
* Use `contains` to take any columns containing a certain word/phrase/character

## Select Example


```r
select(taxi_df, pickup_nhood, dropoff_nhood, 
       fare_amount, dropoff_hour, trip_distance)
```

```
## # A tibble: 5,000,000 × 5
##       pickup_nhood      dropoff_nhood fare_amount dropoff_hour
##             <fctr>             <fctr>       <dbl>       <fctr>
## 1             SoHo       Battery Park         7.0     6PM-10PM
## 2     East Village Bedford Stuyvesant        18.0     6PM-10PM
## 3          Midtown           Downtown        34.0     10PM-1AM
## 4  Upper East Side        Murray Hill         9.0     12PM-4PM
## 5     Little Italy          Chinatown         4.5     6PM-10PM
## 6  Upper East Side  Greenwich Village        15.5     10PM-1AM
## 7             NoHo       West Village        10.0      1AM-5AM
## 8  Upper East Side    Upper West Side        13.0     12PM-4PM
## 9  Upper East Side        East Harlem         8.5     12PM-4PM
## 10 Upper West Side            Midtown         9.0      4PM-6PM
## # ... with 4,999,990 more rows, and 1 more variables: trip_distance <dbl>
```
…
## Reordering Data

* You can reorder your dataset based on conditions using the `arrange()` verb
* Use the `desc` function to sort in descending order rather than ascending order (default)

## Arrange


```r
select(arrange(taxi_df, desc(fare_amount), pickup_nhood), 
       fare_amount, pickup_nhood)
```

```
## # A tibble: 5,000,000 × 2
##    fare_amount                          pickup_nhood
##          <dbl>                                <fctr>
## 1      2020.37                         East New York
## 2       991.16                              Glendale
## 3       889.97                      Garment District
## 4       750.00                               Midwood
## 5       606.00                              Gramercy
## 6       600.00                            Tudor City
## 7       534.00                               Astoria
## 8       495.70                       Upper East Side
## 9       445.00 John F. Kennedy International Airport
## 10      420.00                       Upper East Side
## # ... with 4,999,990 more rows
```
…
# Data Aggregations and Transformations

## Transformations

* The `mutate()` verb can be used to make new columns


```r
taxi_df <- mutate(taxi_df, tip_pct = tip_amount/fare_amount)
select(taxi_df, tip_pct, fare_amount, tip_amount)
```

```
## # A tibble: 5,000,000 × 3
##      tip_pct fare_amount tip_amount
##        <dbl>       <dbl>      <dbl>
## 1  0.2928571         7.0       2.05
## 2  0.1388889        18.0       2.50
## 3  0.2076471        34.0       7.06
## 4  0.0000000         9.0       0.00
## 5  0.0000000         4.5       0.00
## 6  0.0000000        15.5       0.00
## 7  0.2260000        10.0       2.26
## 8  0.2276923        13.0       2.96
## 9  0.2188235         8.5       1.86
## 10 0.3000000         9.0       2.70
## # ... with 4,999,990 more rows
```

```r
transmute(taxi_df, tip_pct = tip_amount/fare_amount)
```

```
## # A tibble: 5,000,000 × 1
##      tip_pct
##        <dbl>
## 1  0.2928571
## 2  0.1388889
## 3  0.2076471
## 4  0.0000000
## 5  0.0000000
## 6  0.0000000
## 7  0.2260000
## 8  0.2276923
## 9  0.2188235
## 10 0.3000000
## # ... with 4,999,990 more rows
```
…
```r
grouped_taxi <- group_by(taxi_df, dropoff_nhood)
class(grouped_taxi)
```

```
## [1] "grouped_df" "tbl_df"     "tbl"        "data.frame"
```

```r
grouped_taxi
```

```
## Source: local data frame [5,000,000 x 22]
## Groups: dropoff_nhood [260]
## 
##    VendorID passenger_count trip_distance pickup_longitude pickup_latitude
##       <int>           <int>         <dbl>            <dbl>           <dbl>
## 1         1               1          1.40        -74.00555        40.72562
## 2         2               2          4.58        -73.98419        40.73022
## 3         2               5          9.63        -73.97183        40.76273
## 4         1               1          1.70        -73.96131        40.77190
## 5         1               2          0.60        -73.99568        40.72430
## 6         1               1          4.10        -73.95731        40.76214
## 7         2               5          1.76        -73.99208        40.72919
## 8         2               1          2.68        -73.95257        40.78289
## 9         2               1          1.69        -73.94909        40.78134
## 10        2               1          1.16        -73.98251        40.76832
## # ... with 4,999,990 more rows, and 17 more variables: RatecodeID <int>,
## #   store_and_fwd_flag <chr>, dropoff_longitude <dbl>,
## #   dropoff_latitude <dbl>, payment_type <int>, fare_amount <dbl>,
## #   tip_amount <dbl>, tolls_amount <dbl>, tip_percent <dbl>,
## #   pickup_hour <fctr>, pickup_dow <fctr>, dropoff_hour <fctr>,
## #   dropoff_dow <fctr>, trip_duration <int>, pickup_nhood <fctr>,
## #   dropoff_nhood <fctr>, tip_pct <dbl>
```



```r
summarize(group_by(taxi_df, dropoff_nhood), 
          Num = n(), ave_tip_pct = mean(tip_pct))
```

```
## # A tibble: 260 × 3
##      dropoff_nhood   Num ave_tip_pct
##             <fctr> <int>       <dbl>
## 1         Annadale     5  0.24561406
## 2    Arden Heights    12  0.15648199
## 3         Arrochar    36  0.11437722
## 4          Arverne    69  0.11855379
## 5          Astoria 53770  0.16893957
## 6  Astoria Heights   594  0.08350706
## 7       Auburndale   390  0.09936931
## 8       Bath Beach   802  0.10006194
## 9     Battery Park 53613  0.20848133
## 10       Bay Ridge  2846  0.13369090
## # ... with 250 more rows
```

## Group By Neighborhoods Example


```r
summarise(group_by(taxi_df, pickup_nhood, dropoff_nhood), 
          Num = n(), ave_tip_pct = mean(tip_pct))
```

```
## Source: local data frame [13,089 x 4]
## Groups: pickup_nhood [?]
## 
##    pickup_nhood   dropoff_nhood   Num ave_tip_pct
##          <fctr>          <fctr> <int>       <dbl>
## 1      Arrochar        Arrochar     1  0.00000000
## 2      Arrochar   Crown Heights     2  0.18914665
## 3       Arverne         Arverne     4  0.12575000
## 4       Arverne    Far Rockaway     2  0.00000000
## 5       Astoria         Astoria  9896  0.34644699
## 6       Astoria Astoria Heights   161  0.07155575
## 7       Astoria      Auburndale     4  0.05240741
## 8       Astoria      Bath Beach     1  0.00000000
## 9       Astoria    Battery Park    19  0.14814670
## 10      Astoria       Bay Ridge     8  0.09474953
## # ... with 13,079 more rows
```
…
## Standard Code

* Code is executed inside-out.
* Let's arrange the above average tips in descending order, and only look at the locations that had at least 10 dropoffs and pickups.


```r
filter(arrange(summarise(group_by(taxi_df, pickup_nhood, dropoff_nhood), Num = n(), ave_tip_pct = mean(tip_pct)), desc(ave_tip_pct)), Num >= 10)
```

```
## Source: local data frame [5,333 x 4]
## Groups: pickup_nhood [151]
## 
##          pickup_nhood                         dropoff_nhood   Num
##                <fctr>                                <fctr> <int>
## 1             Melrose                               Melrose    23
## 2        Central Park John F. Kennedy International Airport   548
## 3          Mott Haven                            Mott Haven   242
## 4  La Guardia Airport                    La Guardia Airport  1665
## 5        Battery Park                          Battery Park  1666
## 6      Pelham Gardens                        Pelham Gardens    13
## 7            Longwood                              Longwood    12
## 8    Garment District                        Brighton Beach    21
## 9        Far Rockaway                          Far Rockaway    16
## 10          Flatlands                             Flatlands    15
## # ... with 5,323 more rows, and 1 more variables: ave_tip_pct <dbl>
```
…
```r
filter(
  arrange(
    summarise(
      group_by(taxi_df, 
               pickup_nhood, dropoff_nhood), 
      Num = n(), 
      ave_tip_pct = mean(tip_pct)), 
    desc(ave_tip_pct)), 
  Num >= 10)
```

```
## Source: local data frame [5,333 x 4]
## Groups: pickup_nhood [151]
## 
##          pickup_nhood                         dropoff_nhood   Num
##                <fctr>                                <fctr> <int>
## 1             Melrose                               Melrose    23
## 2        Central Park John F. Kennedy International Airport   548
## 3          Mott Haven                            Mott Haven   242
## 4  La Guardia Airport                    La Guardia Airport  1665
## 5        Battery Park                          Battery Park  1666
## 6      Pelham Gardens                        Pelham Gardens    13
## 7            Longwood                              Longwood    12
## 8    Garment District                        Brighton Beach    21
## 9        Far Rockaway                          Far Rockaway    16
## 10          Flatlands                             Flatlands    15
## # ... with 5,323 more rows, and 1 more variables: ave_tip_pct <dbl>
```
…
## Put that Function in Your Pipe and...


```r
taxi_df %>% 
  group_by(pickup_nhood, dropoff_nhood) %>% 
  summarize(Num = n(),
            ave_tip_pct = mean(tip_pct)) %>% 
  arrange(desc(ave_tip_pct)) %>% 
  filter(Num >= 10)
```

```
## Source: local data frame [5,333 x 4]
## Groups: pickup_nhood [151]
## 
##          pickup_nhood                         dropoff_nhood   Num
##                <fctr>                                <fctr> <int>
## 1             Melrose                               Melrose    23
## 2        Central Park John F. Kennedy International Airport   548
## 3          Mott Haven                            Mott Haven   242
## 4  La Guardia Airport                    La Guardia Airport  1665
## 5        Battery Park                          Battery Park  1666
## 6      Pelham Gardens                        Pelham Gardens    13
## 7            Longwood                              Longwood    12
## 8    Garment District                        Brighton Beach    21
## 9        Far Rockaway                          Far Rockaway    16
## 10          Flatlands                             Flatlands    15
## # ... with 5,323 more rows, and 1 more variables: ave_tip_pct <dbl>
```
…
```r
mht_url <- "http://alizaidi.blob.core.windows.net/training/manhattan.rds"
manhattan_hoods <- readRDS(gzcon(url(mht_url)))
taxi_df %>% 
  filter(pickup_nhood %in% manhattan_hoods,
         dropoff_nhood %in% manhattan_hoods) %>% 
  group_by(dropoff_nhood, pickup_nhood) %>% 
  summarize(ave_tip = mean(tip_pct), 
            ave_dist = mean(trip_distance)) %>% 
  filter(ave_dist > 3, ave_tip > 0.05)
```

```
## Source: local data frame [325 x 4]
## Groups: dropoff_nhood [24]
## 
##    dropoff_nhood        pickup_nhood   ave_tip ave_dist
##           <fctr>              <fctr>     <dbl>    <dbl>
## 1   Battery Park        Central Park 0.1176756 6.173279
## 2   Battery Park             Clinton 0.1172045 3.989862
## 3   Battery Park         East Harlem 0.1774509 8.880230
## 4   Battery Park        East Village 0.1418621 3.556687
## 5   Battery Park    Garment District 0.1194719 4.041875
## 6   Battery Park            Gramercy 0.1453468 4.743278
## 7   Battery Park    Hamilton Heights 0.1386226 9.067857
## 8   Battery Park              Harlem 0.1356608 8.968276
## 9   Battery Park             Midtown 0.1166259 5.423574
## 10  Battery Park Morningside Heights 0.1344809 8.083016
## # ... with 315 more rows
```
…
```r
library(broom)
dow_lms %>% tidy(lm_tip)
```

```
## Source: local data frame [434 x 6]
## Groups: dropoff_dow [7]
## 
##    dropoff_dow                           term   estimate  std.error
##         <fctr>                          <chr>      <dbl>      <dbl>
## 1          Sun                    (Intercept) 0.06574038 0.03365972
## 2          Sun       pickup_nhoodBattery Park 0.05920213 0.04986723
## 3          Sun pickup_nhoodBedford Stuyvesant 0.03933570 0.06069477
## 4          Sun        pickup_nhoodBoerum Hill 0.18227069 0.12943128
## 5          Sun   pickup_nhoodBrooklyn Heights 0.14437838 0.12943116
## 6          Sun           pickup_nhoodBushwick 0.17528770 0.12952842
## 7          Sun      pickup_nhoodCarnegie Hill 0.04191264 0.05136518
## 8          Sun       pickup_nhoodCentral Park 0.02769683 0.04331530
## 9          Sun            pickup_nhoodChelsea 0.06238084 0.03518380
## 10         Sun          pickup_nhoodChinatown 0.09459021 0.05283873
## # ... with 424 more rows, and 2 more variables: statistic <dbl>,
## #   p.value <dbl>
```
…
### Model Coefficients

The most commonly used function in the `broom` package is the `tidy` function. This will expand our data.frame and give us the model coefficients


```r
taxi_df %>% sample_n(10^5) %>%  
  group_by(dropoff_dow) %>% 
  do(tidy(lm(tip_pct ~ pickup_nhood + passenger_count + pickup_hour,
     data = .)))
```

```
## Source: local data frame [694 x 6]
## Groups: dropoff_dow [7]
## 
##    dropoff_dow                           term    estimate  std.error
##         <fctr>                          <chr>       <dbl>      <dbl>
## 1          Sun                    (Intercept)  0.11895457 0.02350875
## 2          Sun       pickup_nhoodBattery Park  0.03163324 0.03027825
## 3          Sun          pickup_nhoodBay Ridge -0.10737294 0.20951439
## 4          Sun            pickup_nhoodBayside -0.11383714 0.20953271
## 5          Sun pickup_nhoodBedford Stuyvesant  0.02406192 0.05000438
## 6          Sun        pickup_nhoodBoerum Hill  0.04162640 0.06975837
## 7          Sun          pickup_nhoodBriarwood -0.07724149 0.10664184
## 8          Sun   pickup_nhoodBrooklyn Heights  0.05697923 0.06978770
## 9          Sun        pickup_nhoodBrownsville -0.11042552 0.20957708
## 10         Sun           pickup_nhoodBushwick  0.05413353 0.06442802
## # ... with 684 more rows, and 2 more variables: statistic <dbl>,
## #   p.value <dbl>
```
…
